{
    "version":  "v1.5.2",
    "license":  "",
    "extract_dir":  "",
    "url":  "https://github.com/epinio/epinio/releases/download/v1.5.2/epinio-windows-x86_64.zip",
    "homepage":  "https://epinio.io",
    "bin":  "epinio.exe"
}
